<svg version="1.0" xmlns="http://www.w3.org/2000/svg" width="536.0769245624541" height="436.46153950691235" preserveAspectRatio="xMidYMid meet" style=""><rect id="backgroundrect" width="100%" height="100%" x="0" y="0" fill="none" stroke="none" style="" class=""/>


<g class="currentLayer" style=""><title>Layer 1</title><g transform="translate(0, 118) scale(0.1, -0.1)" fill="#1a1aeb" stroke="none" id="svg_1" class="" fill-opacity="1">
<path d="M236.1548309326172,563.8510131835938 l0,-102.3029556274414 l726.5267333984375,0 l726.5267333984375,0 l0,-777.50244140625 l0,-777.50244140625 l186.2888946533203,0 l186.2888946533203,0 l0,-572.8965454101562 l0,-572.8965454101562 l93.14444732666016,0 l93.14444732666016,0 l0,675.199462890625 l0,675.199462890625 l-186.2888946533203,0 l-186.2888946533203,0 l0,777.50244140625 l0,777.50244140625 l-819.671142578125,0 l-819.671142578125,0 l0,-102.3029556274414 z" id="svg_2" fill="#1a1aeb" fill-opacity="1"/>
<path d="M2061.7850189208984,563.8510131835938 l0,-102.3029556274414 l409.8355712890625,0 l409.8355712890625,0 l0,102.3029556274414 l0,102.3029556274414 l-409.8355712890625,0 l-409.8355712890625,0 l0,-102.3029556274414 z" id="svg_3" fill="#1a1aeb" fill-opacity="1"/>
<path d="M2918.714096069336,563.8510131835938 c0,-81.84236145019531 18.628889083862305,-102.3029556274414 93.14444732666016,-102.3029556274414 c74.51555633544922,0 93.14444732666016,20.460590362548828 93.14444732666016,102.3029556274414 c0,81.84236145019531 -18.628889083862305,102.3029556274414 -93.14444732666016,102.3029556274414 c-74.51555633544922,0 -93.14444732666016,-20.460590362548828 -93.14444732666016,-102.3029556274414 z" id="svg_4" fill="#1a1aeb" fill-opacity="1"/>
<path d="M3179.520492553711,563.8510131835938 l0,-102.3029556274414 l823.39697265625,-8.184235572814941 l819.671142578125,-12.276354789733887 l-804.7679443359375,-838.8842163085938 c-443.3675842285156,-462.4093933105469 -901.6381225585938,-928.9107666015625 -1013.4115600585938,-1043.4901123046875 c-152.7568817138672,-151.40835571289062 -197.4662322998047,-220.974365234375 -178.8373260498047,-274.171875 c33.53200149536133,-94.11872100830078 111.77332305908203,-94.11872100830078 175.111572265625,0 c26.080442428588867,40.921180725097656 514.1572875976562,556.528076171875 1084.2012939453125,1149.8851318359375 c655.73681640625,683.3837280273438 1032.040283203125,1100.7799072265625 1032.040283203125,1153.9774169921875 c0,73.65811920166016 -37.25777816772461,77.75022888183594 -968.7020874023438,77.75022888183594 l-968.7020874023438,0 l0,-102.3029556274414 z" id="svg_5" fill="#1a1aeb" fill-opacity="1"/>
<path d="M347.92784118652344,154.6392822265625 c0,-81.84236145019531 18.628889083862305,-102.3029556274414 93.14444732666016,-102.3029556274414 c74.51555633544922,0 93.14444732666016,20.460590362548828 93.14444732666016,102.3029556274414 c0,81.84236145019531 -18.628889083862305,102.3029556274414 -93.14444732666016,102.3029556274414 c-74.51555633544922,0 -93.14444732666016,-20.460590362548828 -93.14444732666016,-102.3029556274414 z" id="svg_6" fill="#1a1aeb" fill-opacity="1"/>
<path d="M571.4739532470703,154.6392822265625 l0,-102.3029556274414 l465.7221984863281,0 l465.7221984863281,0 l0,102.3029556274414 l0,102.3029556274414 l-465.7221984863281,0 l-465.7221984863281,0 l0,-102.3029556274414 z" id="svg_7" fill="#1a1aeb" fill-opacity="1"/>
<path d="M2061.7850189208984,-213.65133666992188 l0,-470.59356689453125 l93.14444732666016,0 c93.14444732666016,0 93.14444732666016,4.092117786407471 93.14444732666016,368.29058837890625 l0,368.29058837890625 l521.60888671875,0 l521.60888671875,0 l0,102.3029556274414 l0,102.3029556274414 l-614.7532348632812,0 l-614.7532348632812,0 l0,-470.59356689453125 z" id="svg_8" fill="#1a1aeb" fill-opacity="1"/>
<path d="M3440.322494506836,154.6392822265625 c0,-102.3029556274414 3.7257776260375977,-102.3029556274414 335.3199462890625,-102.3029556274414 c331.5942077636719,0 335.3199462890625,0 335.3199462890625,102.3029556274414 c0,102.3029556274414 -3.7257776260375977,102.3029556274414 -335.3199462890625,102.3029556274414 c-331.5942077636719,0 -335.3199462890625,0 -335.3199462890625,-102.3029556274414 z" id="svg_9" fill="#1a1aeb" fill-opacity="1"/>
<path d="M4148.218978881836,154.6392822265625 c0,-81.84236145019531 18.628889083862305,-102.3029556274414 93.14444732666016,-102.3029556274414 c74.51555633544922,0 93.14444732666016,20.460590362548828 93.14444732666016,102.3029556274414 c0,81.84236145019531 -18.628889083862305,102.3029556274414 -93.14444732666016,102.3029556274414 c-74.51555633544922,0 -93.14444732666016,-20.460590362548828 -93.14444732666016,-102.3029556274414 z" id="svg_10" fill="#1a1aeb" fill-opacity="1"/>
<path d="M3503.660873413086,-1343.0758666992188 c-815.9453125,-851.1605834960938 -1069.298095703125,-1133.5166015625 -1069.298095703125,-1207.1746826171875 l0,-98.2108383178711 l1266.7645263671875,0 l1266.7645263671875,0 l0,102.3029556274414 l0,102.3029556274414 l-1121.4591064453125,8.184235572814941 l-1121.4591064453125,12.276354789733887 l845.7515869140625,879.8052978515625 c465.7221984863281,482.8699645996094 916.5413818359375,945.279296875 998.5084838867188,1027.1214599609375 c134.1280059814453,130.94776916503906 149.03111267089844,155.50045776367188 104.32176971435547,216.88223266601562 c-26.080442428588867,36.82905960083008 -59.61244201660156,65.47388458251953 -74.51555633544922,65.47388458251953 c-11.177332878112793,0 -506.7057800292969,-499.2384338378906 -1095.378662109375,-1108.964111328125 z" id="svg_11" fill="#1a1aeb" fill-opacity="1"/>
<path d="M1689.207504272461,-1973.2619018554688 l0,-675.199462890625 l93.14444732666016,0 l93.14444732666016,0 l0,675.199462890625 l0,675.199462890625 l-93.14444732666016,0 l-93.14444732666016,0 l0,-675.199462890625 z" id="svg_12" fill="#1a1aeb" fill-opacity="1"/>
<path d="M3403.066146850586,-2218.7891235351562 l0,-102.3029556274414 l614.7532348632812,0 l614.7532348632812,0 l0,102.3029556274414 l0,102.3029556274414 l-614.7532348632812,0 l-614.7532348632812,0 l0,-102.3029556274414 z" id="svg_13" fill="#1a1aeb" fill-opacity="1"/>
<path d="M4669.830307006836,-2218.7891235351562 c0,-81.84236145019531 18.628889083862305,-102.3029556274414 93.14444732666016,-102.3029556274414 c74.51555633544922,0 93.14444732666016,20.460590362548828 93.14444732666016,102.3029556274414 c0,81.84236145019531 -18.628889083862305,102.3029556274414 -93.14444732666016,102.3029556274414 c-74.51555633544922,0 -93.14444732666016,-20.460590362548828 -93.14444732666016,-102.3029556274414 z" id="svg_14" fill="#1a1aeb" fill-opacity="1"/>
</g></g></svg>